<?xml version="1.0" encoding="UTF-8" standalone="no"?>
<svg
   xmlns:dc="http://purl.org/dc/elements/1.1/"
   xmlns:cc="http://creativecommons.org/ns#"
   xmlns:rdf="http://www.w3.org/1999/02/22-rdf-syntax-ns#"
   xmlns:svg="http://www.w3.org/2000/svg"
   xmlns="http://www.w3.org/2000/svg"
   xmlns:sodipodi="http://sodipodi.sourceforge.net/DTD/sodipodi-0.dtd"
   xmlns:inkscape="http://www.inkscape.org/namespaces/inkscape"
   id="svg2"
   sodipodi:docname="cow1_backside_origin.svg"
   viewBox="0 0 108.00288 115.38683"
   version="1.1"
   inkscape:version="1.0.2 (e86c870879, 2021-01-15)"
   width="108.00288"
   height="115.38683">
  <defs
     id="defs58">
    <inkscape:path-effect
       effect="spiro"
       id="path-effect64"
       is_visible="true"
       lpeversion="1" />
    <inkscape:path-effect
       effect="spiro"
       id="path-effect1040"
       is_visible="true"
       lpeversion="1" />
    <inkscape:path-effect
       effect="spiro"
       id="path-effect999"
       is_visible="true"
       lpeversion="1" />
    <inkscape:path-effect
       effect="spiro"
       id="path-effect987"
       is_visible="true"
       lpeversion="1" />
    <inkscape:path-effect
       effect="spiro"
       id="path-effect959"
       is_visible="true"
       lpeversion="1" />
    <inkscape:path-effect
       effect="spiro"
       id="path-effect951"
       is_visible="true"
       lpeversion="1" />
  </defs>
  <sodipodi:namedview
     id="namedview4"
     bordercolor="#666666"
     inkscape:pageshadow="2"
     guidetolerance="10"
     pagecolor="#ffffff"
     gridtolerance="10"
     inkscape:window-maximized="1"
     inkscape:zoom="0.5"
     objecttolerance="10"
     borderopacity="1"
     inkscape:current-layer="svg2"
     inkscape:cx="904.30561"
     inkscape:cy="387.72342"
     inkscape:window-y="0"
     inkscape:window-x="0"
     inkscape:window-width="1920"
     showgrid="false"
     inkscape:pageopacity="0"
     inkscape:window-height="1007"
     inkscape:document-rotation="0" />
  <path
     id="path2987"
     style="fill:#ffffff;stroke:#000000;stroke-width:0.699515px;stroke-linecap:round;stroke-linejoin:round"
     d="m 26.040937,110.8188 c -1.4021,4.52003 -8.97135,5.74033 -13.75566,2.01848 -0.10667,-1.60774 0.88992,-1.71786 -1.51812,-5.02443 l -2.9562398,-1.09943 -1.97737,0.70892 -1.25631,-1.53816 -0.23463,-0.68967 c -3.09237,-2.29823 -3.19124,-3.60121 -3.72005996,-5.04702 L 1.0634172,96.918496 0.34975724,93.466886 c 0.0718,-1.03828 2.03676996,-3.03882 3.19733996,-4.63016 2.97109,-2.80488 5.91989,-5.54999 10.0689198,-11.35552 l 4.34207,-5.78906 c 1.24974,-1.18835 2.68704,-2.56747 3.66441,-3.47999 0.29031,-1.18353 0.34312,-1.1353 0.89919,-3.69277 l 0.88936,-5.07647 0.20298,-4.37919 1.13599,-2.54259 2.06136,-2.08757 3.20391,-3.4767 2.29488,-1.62814 3.20062,-3.93722 1.36516,-2.77395 2.27743,-4.39335 0.90682,-2.31017 c -6.77334,-6.07551 -10.48894,-12.33252 -5.65156,-19.09245 1.61699,4.67573 1.90317,9.36038 8.15488,14.00723 4.17715,-2.85163 9.06834,-4.29853 14.48958,-4.70108 -2.50637,-5.69837 -0.53586,-9.93534 2.44765,-13.8424598 0.0487,10.4200798 3.6437,13.0253098 7.24262,15.6244598 l 9.2e-4,-0.004 c 5.50204,3.1148 5.4856,6.26425 6.28123,9.40872 93.918013,128.428034 -31.24543,35.77542 -46.98458,77.504344 z"
     sodipodi:nodetypes="ccccccccccccccccccccccccccccccccc" />
  <metadata
     id="metadata55">
    <rdf:RDF>
      <cc:Work>
        <dc:format>image/svg+xml</dc:format>
        <dc:type
           rdf:resource="http://purl.org/dc/dcmitype/StillImage" />
        <cc:license
           rdf:resource="http://creativecommons.org/licenses/publicdomain/" />
        <dc:publisher>
          <cc:Agent
             rdf:about="http://openclipart.org/">
            <dc:title>Openclipart</dc:title>
          </cc:Agent>
        </dc:publisher>
        <dc:title></dc:title>
        <dc:date>2011-08-28T00:16:23</dc:date>
        <dc:description />
        <dc:source>https://openclipart.org/detail/158389/cow-by-marauder</dc:source>
        <dc:creator>
          <cc:Agent>
            <dc:title>marauder</dc:title>
          </cc:Agent>
        </dc:creator>
        <dc:subject>
          <rdf:Bag>
            <rdf:li>animal</rdf:li>
            <rdf:li>cow</rdf:li>
            <rdf:li>foot</rdf:li>
            <rdf:li>meat</rdf:li>
            <rdf:li>silhouette</rdf:li>
          </rdf:Bag>
        </dc:subject>
      </cc:Work>
      <cc:License
         rdf:about="http://creativecommons.org/licenses/publicdomain/">
        <cc:permits
           rdf:resource="http://creativecommons.org/ns#Reproduction" />
        <cc:permits
           rdf:resource="http://creativecommons.org/ns#Distribution" />
        <cc:permits
           rdf:resource="http://creativecommons.org/ns#DerivativeWorks" />
      </cc:License>
    </rdf:RDF>
  </metadata>
  <path
     style="fill:#ffffff;stroke:#ffffff;stroke-width:0.0325399"
     d=""
     id="path40" />
  <ellipse
     style="fill:#ffffff;stroke:#000000;stroke-width:0.7;stroke-miterlimit:4;stroke-dasharray:none"
     id="path25"
     cx="-42.455021"
     cy="61.092243"
     rx="3.8338661"
     ry="2.9509323"
     transform="scale(-1,1)" />
  <ellipse
     style="fill:none;stroke:#ff0000;stroke-width:0.735835;stroke-linejoin:round;paint-order:stroke fill markers"
     id="path96"
     cx="58.577"
     cy="10.151682"
     rx="11.616566"
     ry="9.7837648" />
</svg>
